-------------------------------------------------------------------------------
Test set: org.distillery.shop.TestNgMavenExampleTest
-------------------------------------------------------------------------------
Tests run: 1, Failures: 0, Errors: 0, Skipped: 0, Time elapsed: 2.195 sec
