E:\projects\shop\src\test\java\org\distillery\shop\CashTest.java
E:\projects\shop\src\test\java\org\distillery\conditions\Cash.java
E:\projects\shop\src\test\java\org\distillery\negative\InvalidSymbolsTest.java
E:\projects\shop\src\test\java\org\distillery\conditions\Negative.java
